Relatório dos gráficos
…
Este é o conteúdo da variável ‘sumario’

## # A tibble: 30 × 8
##    Beach                 media desvio    Q1 mediana    Q3 minimo maximo
##    <chr>                 <dbl>  <dbl> <dbl>   <dbl> <dbl>  <dbl>  <dbl>
##  1 ARRASTÃO               54.5  115.      6    16      55      1   1200
##  2 BALEIA                 12.2   52.2     1     2       5      1    720
##  3 BAREQUEÇABA            26.3   83.3     1     4.5    16      1   1120
##  4 BOIÇUCANGA             30.3   89.1     2     6      19      1    780
##  5 BORACÉIA - NORTE       43.8   96.9     3    14      41      1    920
##  6 BORACÉIA - R. CUBATÃO  35.4  106.      1     3      16      1    960
##  7 CAMBURI                32.0   93.8     2     8      21      1    880
##  8 CAMBURIZINHO           12.6   52.4     1     2       8      1    780
##  9 CIGARRAS               46.8   97.6     6    17      43      1    900
## 10 DESERTA                58.8  132.      4    14      52      1   1080
## # … with 20 more rows
…
